2007.08.03 17:21 B I:\My Documents\a.teachernotes.org\5 Themes\newsportal02\block.tpl.php <-- access.cws.oregonstate.edu /nfs/disk/data/www/virtual/webdev/harrikat/drup/themes/contributions/themes/newsportal02 block.tpl.php
2007.08.03 17:21 B I:\My Documents\a.teachernotes.org\5 Themes\newsportal02\box.tpl.php <-- access.cws.oregonstate.edu /nfs/disk/data/www/virtual/webdev/harrikat/drup/themes/contributions/themes/newsportal02 box.tpl.php
2007.08.03 17:21 B I:\My Documents\a.teachernotes.org\5 Themes\newsportal02\comment.tpl.php <-- access.cws.oregonstate.edu /nfs/disk/data/www/virtual/webdev/harrikat/drup/themes/contributions/themes/newsportal02 comment.tpl.php
2007.08.03 17:21 B I:\My Documents\a.teachernotes.org\5 Themes\newsportal02\newsportal02.png <-- access.cws.oregonstate.edu /nfs/disk/data/www/virtual/webdev/harrikat/drup/themes/contributions/themes/newsportal02 newsportal02.png
2007.08.03 17:21 B I:\My Documents\a.teachernotes.org\5 Themes\newsportal02\newsportal02.xcf <-- access.cws.oregonstate.edu /nfs/disk/data/www/virtual/webdev/harrikat/drup/themes/contributions/themes/newsportal02 newsportal02.xcf
2007.08.03 17:21 B I:\My Documents\a.teachernotes.org\5 Themes\newsportal02\node.tpl.php <-- access.cws.oregonstate.edu /nfs/disk/data/www/virtual/webdev/harrikat/drup/themes/contributions/themes/newsportal02 node.tpl.php
2007.08.03 17:21 B I:\My Documents\a.teachernotes.org\5 Themes\newsportal02\page.tpl.php <-- access.cws.oregonstate.edu /nfs/disk/data/www/virtual/webdev/harrikat/drup/themes/contributions/themes/newsportal02 page.tpl.php
2007.08.03 17:21 B I:\My Documents\a.teachernotes.org\5 Themes\newsportal02\readme.txt <-- access.cws.oregonstate.edu /nfs/disk/data/www/virtual/webdev/harrikat/drup/themes/contributions/themes/newsportal02 readme.txt
2007.08.03 17:21 B I:\My Documents\a.teachernotes.org\5 Themes\newsportal02\screenshot-drupal.org.png <-- access.cws.oregonstate.edu /nfs/disk/data/www/virtual/webdev/harrikat/drup/themes/contributions/themes/newsportal02 screenshot-drupal.org.png
2007.08.03 17:21 B I:\My Documents\a.teachernotes.org\5 Themes\newsportal02\screenshot.large.png <-- access.cws.oregonstate.edu /nfs/disk/data/www/virtual/webdev/harrikat/drup/themes/contributions/themes/newsportal02 screenshot.large.png
2007.08.03 17:21 B I:\My Documents\a.teachernotes.org\5 Themes\newsportal02\screenshot.png <-- access.cws.oregonstate.edu /nfs/disk/data/www/virtual/webdev/harrikat/drup/themes/contributions/themes/newsportal02 screenshot.png
2007.08.03 17:21 B I:\My Documents\a.teachernotes.org\5 Themes\newsportal02\style.css <-- access.cws.oregonstate.edu /nfs/disk/data/www/virtual/webdev/harrikat/drup/themes/contributions/themes/newsportal02 style.css
2007.08.03 17:21 B I:\My Documents\a.teachernotes.org\5 Themes\newsportal02\template.php <-- access.cws.oregonstate.edu /nfs/disk/data/www/virtual/webdev/harrikat/drup/themes/contributions/themes/newsportal02 template.php
2007.08.03 17:21 B I:\My Documents\a.teachernotes.org\5 Themes\newsportal02\thumbnail.png <-- access.cws.oregonstate.edu /nfs/disk/data/www/virtual/webdev/harrikat/drup/themes/contributions/themes/newsportal02 thumbnail.png
2007.08.03 17:23 A I:\My Documents\a.teachernotes.org\5 Themes\newsportal02\block.tpl.php --> 74.53.150.11 /public_html/newsportal02 block.tpl.php
2007.08.03 17:23 A I:\My Documents\a.teachernotes.org\5 Themes\newsportal02\box.tpl.php --> 74.53.150.11 /public_html/newsportal02 box.tpl.php
2007.08.03 17:23 A I:\My Documents\a.teachernotes.org\5 Themes\newsportal02\comment.tpl.php --> 74.53.150.11 /public_html/newsportal02 comment.tpl.php
2007.08.03 17:23 B I:\My Documents\a.teachernotes.org\5 Themes\newsportal02\newsportal02.png --> 74.53.150.11 /public_html/newsportal02 newsportal02.png
2007.08.03 17:23 B I:\My Documents\a.teachernotes.org\5 Themes\newsportal02\newsportal02.xcf --> 74.53.150.11 /public_html/newsportal02 newsportal02.xcf
2007.08.03 17:23 A I:\My Documents\a.teachernotes.org\5 Themes\newsportal02\node.tpl.php --> 74.53.150.11 /public_html/newsportal02 node.tpl.php
2007.08.03 17:23 A I:\My Documents\a.teachernotes.org\5 Themes\newsportal02\page.tpl.php --> 74.53.150.11 /public_html/newsportal02 page.tpl.php
2007.08.03 17:23 A I:\My Documents\a.teachernotes.org\5 Themes\newsportal02\readme.txt --> 74.53.150.11 /public_html/newsportal02 readme.txt
2007.08.03 17:23 B I:\My Documents\a.teachernotes.org\5 Themes\newsportal02\screenshot-drupal.org.png --> 74.53.150.11 /public_html/newsportal02 screenshot-drupal.org.png
2007.08.03 17:24 B I:\My Documents\a.teachernotes.org\5 Themes\newsportal02\screenshot.large.png --> 74.53.150.11 /public_html/newsportal02 screenshot.large.png
2007.08.03 17:24 B I:\My Documents\a.teachernotes.org\5 Themes\newsportal02\screenshot.png --> 74.53.150.11 /public_html/newsportal02 screenshot.png
2007.08.03 17:24 A I:\My Documents\a.teachernotes.org\5 Themes\newsportal02\style.css --> 74.53.150.11 /public_html/newsportal02 style.css
2007.08.03 17:24 A I:\My Documents\a.teachernotes.org\5 Themes\newsportal02\template.php --> 74.53.150.11 /public_html/newsportal02 template.php
2007.08.03 17:24 B I:\My Documents\a.teachernotes.org\5 Themes\newsportal02\thumbnail.png --> 74.53.150.11 /public_html/newsportal02 thumbnail.png
